[gd_scene load_steps=3 format=2]

[ext_resource path="res://spr/tiles/car3.png" type="Texture" id=1]

[sub_resource type="CapsuleShape2D" id=1]
radius = 21.9527
height = 49.8125

[node name="Car" type="Sprite"]
scale = Vector2( 1.2, 1.2 )
texture = ExtResource( 1 )

[node name="StaticBody2D" type="StaticBody2D" parent="."]

[node name="CollisionShape2D" type="CollisionShape2D" parent="StaticBody2D"]
position = Vector2( 0.203196, -0.0609574 )
shape = SubResource( 1 )

