[gd_scene load_steps=6 format=2]

[ext_resource path="res://scn/FinalScene.gd" type="Script" id=1]
[ext_resource path="res://props/Car.tscn" type="PackedScene" id=2]
[ext_resource path="res://props/Tree.tscn" type="PackedScene" id=3]
[ext_resource path="res://spr/player/shepard.png" type="Texture" id=4]
[ext_resource path="res://spr/player/woolf.png" type="Texture" id=5]

[node name="Cutscene2" type="Node2D"]
script = ExtResource( 1 )
dialogue_to_show = "2"

[node name="ColorRect2" type="ColorRect" parent="."]
anchor_right = 1.0
anchor_bottom = 1.0
margin_left = -6370.0
margin_top = -2285.0
margin_right = 6370.0
margin_bottom = 2285.0
color = Color( 0.788235, 0.764706, 0.615686, 1 )

[node name="CanvasLayer" type="CanvasLayer" parent="."]
layer = -3

[node name="Control" type="Control" parent="CanvasLayer"]
anchor_right = 1.0
anchor_bottom = 1.0

[node name="ColorRect" type="ColorRect" parent="CanvasLayer/Control"]
anchor_right = 1.0
anchor_bottom = 1.0
margin_left = -1326.0
margin_top = -862.0
margin_right = 1326.0
margin_bottom = 863.0
color = Color( 0.788235, 0.764706, 0.615686, 1 )

[node name="Camera2D" type="Camera2D" parent="."]
current = true

[node name="Car" parent="." instance=ExtResource( 2 )]
visible = false
position = Vector2( -127.877, -105.071 )
rotation = 1.21791

[node name="Tree" parent="." instance=ExtResource( 3 )]
position = Vector2( 207.209, 107.386 )
rotation = -1.51173
scale = Vector2( 2.4, 2.4 )

[node name="Tree2" parent="." instance=ExtResource( 3 )]
position = Vector2( -221.354, -89.3639 )
rotation = -3.12973
scale = Vector2( 2.4, 2.4 )

[node name="shepard" type="Sprite" parent="."]
position = Vector2( -60.9667, -11.4415 )
rotation = 1.62492
scale = Vector2( 2, 2 )
texture = ExtResource( 4 )

[node name="shepard2" type="Sprite" parent="."]
position = Vector2( 56.4642, -13.2465 )
rotation = 4.77146
scale = Vector2( 2, 2 )
texture = ExtResource( 5 )

