[gd_scene load_steps=7 format=2]

[ext_resource path="res://src/enemy/enemy.gd" type="Script" id=1]
[ext_resource path="res://spr/enemy/alien.png" type="Texture" id=2]
[ext_resource path="res://src/enemy/enemy_gun.gd" type="Script" id=3]
[ext_resource path="res://snd/sfx/gunshot.ogg" type="AudioStream" id=4]

[sub_resource type="CircleShape2D" id=1]
radius = 15.0

[sub_resource type="ConvexPolygonShape2D" id=2]
points = PoolVector2Array( -10, -10, 10, -10, 0, 0, 0, 0 )

[node name="Alien" type="KinematicBody2D"]
script = ExtResource( 1 )
health = 4.0
max_velocity = 1.8
rot_lerp_spd = 0.08

[node name="VisibilityNotifier2D" type="VisibilityNotifier2D" parent="."]
rect = Rect2( -50, -50, 100, 100 )

[node name="CollisionShape2D" type="CollisionShape2D" parent="."]
shape = SubResource( 1 )

[node name="Sprite" type="Sprite" parent="."]
rotation = 1.5708
scale = Vector2( 2, 2 )
texture = ExtResource( 2 )

[node name="VisionConeHolder" type="Node2D" parent="."]
rotation = 1.5708

[node name="VisionConeArea" type="Area2D" parent="VisionConeHolder"]

[node name="VisionConeShape" type="CollisionShape2D" parent="VisionConeHolder/VisionConeArea"]
scale = Vector2( 9.17, 21.45 )
shape = SubResource( 2 )

[node name="Gun" type="Node2D" parent="."]
position = Vector2( 17.6839, 0.984553 )
script = ExtResource( 3 )
bullet_spd = 300.0
shoot_cooldown_timer_time = 0.4

[node name="gunshot" type="AudioStreamPlayer2D" parent="Gun"]
stream = ExtResource( 4 )
volume_db = -3.355
pitch_scale = 1.2
bus = "SFX"

[node name="ColorRect" type="ColorRect" parent="."]
visible = false
margin_left = 10.579
margin_top = -0.615047
margin_right = 18.579
margin_bottom = 2.38495
color = Color( 0, 0, 0, 1 )

